conversion_time,"01112347.xls",4119.0107
conversion_time,"0273685988_ch01.ppt",4555.3323
conversion_time,"11_Financial Reports_US.doc",2924.5802
conversion_time,"1471-2164-12-408-s2.xlsx",24450.7231
conversion_time,"arch.doc",409.0499
conversion_time,"ARF-322_0-Statement-of-Financial-Position-Consolidated.xls",181.9997
conversion_time,"August_5.xls",1886.2164
conversion_time,"autolink.doc",61.918
conversion_time,"budget-planner.xls",1619.1635
conversion_time,"cag-financial-statement.doc",178.9877
conversion_time,"changelog.doc",304.2055
conversion_time,"Cinema copy.ppt",581.8029
conversion_time,"Cinema.ppt",707.1402
conversion_time,"coffee-big-pptx.pptx",15830.8393
conversion_time,"coffee-big.ppt",15276.779
conversion_time,"coffee-small.pptx",5381.9034
conversion_time,"commands.doc",301.0029
conversion_time,"ComputeModelTCOCalc1107.xls",1284.0914
conversion_time,"config.doc",451.0237
conversion_time,"CUSA TEST.pptx",3158.1334
conversion_time,"demo.docx",346.0898
conversion_time,"DFBA 300m Facial Verification 23-Jun-2014.docx",1073.9777
conversion_time,"doc_missing_chunk.doc",257.0152
conversion_time,"Finance Intro.ppt",1394.0495
conversion_time,"Financial Model.xls",862.0655
conversion_time,"Financial Projections Model v6.8.4.xls",1975.166
conversion_time,"Financial Reporting.doc",127.7506
conversion_time,"Financial statements slides_final.ppt",1790.1524
conversion_time,"Financial Statements.xls",179.9576
conversion_time,"financial-plan-template.xls",175.052
conversion_time,"financial-viability-checktool-v4_en.xls",185.0172
conversion_time,"FinancialProjectionsModelv6.8.9.xls",1523.6982
conversion_time,"Financial_Analysis.ppt",1146.0604
conversion_time,"financial_statements_sample.xls",1298.0619
conversion_time,"fr-final-report-template-eco-i-final_en.doc",288.0003
conversion_time,"FRD-100-Framework.doc",145.1063
conversion_time,"fschimimport_interim_(cons)_31.03.10_engv3(3).doc",1568.9766
conversion_time,"gb02fde.xls",344.9982
conversion_time,"Helmount-B IDSS  06-Feb-2013.docx",443.0575
conversion_time,"IBM i2 COPLINK 4.8 Overview v2.11mod.ppt",22274.24
conversion_time,"Informing the Process.pptx",18535.0732
conversion_time,"LloydsFinancialResultspresentation2004.ppt",4764.3526
conversion_time,"MSFT_FY11Q4_10K.docx",697.8881
conversion_time,"MSWord_Thesis_091.ppt",12199.9334
conversion_time,"mysteries.docx",785.6663
conversion_time,"pandcaccount_transmission_rpt.doc",154.0267
conversion_time,"Performance.xls",198.9984
conversion_time,"Personal-Financial-Statement.docx",169.1018
conversion_time,"PG_2010_AnnualReport_Financial_Statements.xls",18331.0053
conversion_time,"PowerPoint2002.ppt",10554.5959
conversion_time,"practicepowerpoint.ppt",1225.0866
conversion_time,"presentations-tips.ppt",1446.0803
conversion_time,"presenting.ppt",2943.1709
conversion_time,"pwcservice.xls",1982.1917
conversion_time,"respondus-docx-sample-file_0.docx",293.9713
conversion_time,"sample-financial-model.xls",3587.1968
conversion_time,"Sample-Five-Year-Financial-Plan-Manufacturing-11.07.12.xls",535.0515
conversion_time,"Sample.ppt",502.0962
conversion_time,"SampleData.xls",98.9748
conversion_time,"sbv-financial-statements (1).xls",966.8871
conversion_time,"sbv-financial-statements.xls",862.0669
conversion_time,"Secure+Objects+2.x+REST+API+-+Admin.doc",544.9841
conversion_time,"Secure+Objects+2.x+REST+API.doc",158.9948
conversion_time,"SLGIllustrativeAuditorReportsCh14AppxUpdatedforClarity.docx",378.0744
conversion_time,"Startup-Financial-Model.xls",4588.2808
conversion_time,"UploadedFile_130552339823088423.doc",3480.2335
conversion_time,"USAA_presentation.ppt",2353.1366
conversion_time,"VACATE CLEANING LIST.docx",46.0168
conversion_time,"VSBDC-Financial-Statement-Resource-Guide.doc",157.9885
conversion_time,"wo_ga_40_12.doc",190.9941
conversion_time,"wo_pbc_21_4.docx",231.0415
