conversion_time, 01112347.xls, 2204.9282
conversion_time, 0273685988_ch01.ppt, 4115.3933
conversion_time, 11_Financial Reports_US.doc, 11026.4301
conversion_time, 1471-2164-12-408-s2.xlsx, 16344.9281
conversion_time, arch.doc, 3292.2165
conversion_time, ARF-322_0-Statement-of-Financial-Position-Consolidated.xls, 1646.0774
conversion_time, August_5.xls, 4356.241
conversion_time, autolink.doc, 2746.1706
conversion_time, budget-planner.xls, 8707.5011
conversion_time, cag-financial-statement.doc, 3004.1536
conversion_time, changelog.doc, 3796.2473
conversion_time, Cinema copy.ppt, 1330.0591
conversion_time, Cinema.ppt, 1445.0721
conversion_time, coffee-big-pptx.pptx, 2845.1633
conversion_time, coffee-big.ppt, 9823.5878
conversion_time, coffee-small.pptx, 1563.0816
conversion_time, commands.doc, 4584.299
conversion_time, ComputeModelTCOCalc1107.xls, 11855.6163
conversion_time, config.doc, 3468.1881
conversion_time, CUSA TEST.pptx, 2137.1311
conversion_time, demo.docx, 3342.1986
conversion_time, DFBA 300m Facial Verification 23-Jun-2014.docx, 8814.4893
conversion_time, doc_missing_chunk.doc, 3421.2029
conversion_time, Finance Intro.ppt, 1565.0894
conversion_time, Financial Model.xls, 5022.2426
conversion_time, Financial Projections Model v6.8.4.xls, 12923.7279
conversion_time, Financial Reporting.doc, 3651.2155
conversion_time, Financial statements slides_final.ppt, 2210.1279
conversion_time, Financial Statements.xls, 2692.1465
conversion_time, financial-plan-template.xls, 1966.1133
conversion_time, financial-viability-checktool-v4_en.xls, 2901.189
conversion_time, FinancialProjectionsModelv6.8.9.xls, 11589.6469
conversion_time, Financial_Analysis.ppt, 1264.0767
conversion_time, financial_statements_sample.xls, 5431.2987
conversion_time, fr-final-report-template-eco-i-final_en.doc, 3305.1896
conversion_time, FRD-100-Framework.doc, 3210.1931
conversion_time, fschimimport_interim_(cons)_31.03.10_engv3(3).doc, 6249.3392
conversion_time, gb02fde.xls, 2787.1475
conversion_time, Helmount-B IDSS  06-Feb-2013.docx, 6240.3622
conversion_time, IBM i2 COPLINK 4.8 Overview v2.11mod.ppt, 11158.6414
conversion_time, Informing the Process.pptx, 5656.3255
conversion_time, LloydsFinancialResultspresentation2004.ppt, 4929.2704
conversion_time, MSFT_FY11Q4_10K.docx, 14453.8944
conversion_time, MSWord_Thesis_091.ppt, 6005.2943
conversion_time, mysteries.docx, 5803.3161
conversion_time, pandcaccount_transmission_rpt.doc, 3042.2332
conversion_time, Performance.xls, 2861.1341
conversion_time, Personal-Financial-Statement.docx, 3804.2025
conversion_time, PG_2010_AnnualReport_Financial_Statements.xls, 21127.2083
conversion_time, PowerPoint2002.ppt, 5140.3007
conversion_time, practicepowerpoint.ppt, 1385.0632
conversion_time, presentations-tips.ppt, 1371.0815
conversion_time, presenting.ppt, 2602.1403
conversion_time, pwcservice.xls, 6712.3901
conversion_time, respondus-docx-sample-file_0.docx, 3205.1969
conversion_time, sample-financial-model.xls, 4684.2574
conversion_time, Sample-Five-Year-Financial-Plan-Manufacturing-11.07.12.xls, 2678.1571
conversion_time, Sample.ppt, 1838.1177
conversion_time, SampleData.xls, 2239.1122
conversion_time, sbv-financial-statements (1).xls, 5209.3004
conversion_time, sbv-financial-statements.xls, 5085.2979
conversion_time, Secure+Objects+2.x+REST+API+-+Admin.doc, 2982.1654
conversion_time, Secure+Objects+2.x+REST+API.doc, 1636.1037
conversion_time, SLGIllustrativeAuditorReportsCh14AppxUpdatedforClarity.docx, 3470.1921
conversion_time, Startup-Financial-Model.xls, 6400.3104
conversion_time, UploadedFile_130552339823088423.doc, 11567.623
conversion_time, USAA_presentation.ppt, 2641.104
conversion_time, VACATE CLEANING LIST.docx, 2774.1504
conversion_time, VSBDC-Financial-Statement-Resource-Guide.doc, 4168.2087
conversion_time, wo_ga_40_12.doc, 4546.2357
conversion_time, wo_pbc_21_4.docx, 5043.2593
